1 10 20
100 200 125
201 210 89
900 1000 174
100 10 119
611204 235737 470
676840 244810 509
269281 244638 407
693190 549425 509
313008 394533 441
554633 174192 470
566433 914680 525
316534 874935 525
604074 28086 470
970144 549164 525
902203 193111 525
788713 355904 509
776067 69422 509
691079 745441 504
912156 723329 525
795991 69220 509
447948 40732 449
586927 849275 525
611279 953159 525
377893 780437 509
901075 455502 525
958349 977148 458
567486 73382 470
275802 432349 449
511943 256813 470
772183 153116 509
415699 902094 525
81867 397883 443
443625 304884 449
921855 67395 525
904154 691360 525
517285 576082 452
817066 747897 468
860571 33772 525
915425 759124 525
29662 971903 525
307222 333277 384
570314 63597 470
672593 501386 509
28723 711841 509
189501 622264 470
589341 552167 434
538887 897838 525
403009 303337 441
786908 883762 525
199326 700785 509
175132 881916 525
364809 934503 525
155793 426585 449
99267 805118 509
749743 982599 525
470065 225967 449
8057 164518 383
18037 910081 525
512352 81166 470
637929 586334 509
519477 185972 470
852333 256770 525
683069 679696 367
538708 149411 470
426540 332425 449
409874 108010 443
725735 107097 509
923064 939829 507
798612 283632 509
175541 634110 509
17096 88000 351
642984 974556 525
285296 462940 449
570041 493410 470
169622 223545 386
959652 316974 525
128977 510445 449
903953 88128 525
850753 599467 525
163165 606707 470
653932 740724 504
489564 855094 525
908950 898311 445
710551 778665 468
498938 347085 449
266786 528658 470
299833 324492 384
682919 539119 509
599310 235495 470
995703 800188 525
427226 778311 509
587595 891072 525
268872 135917 443
959793 507170 525
323249 957522 525
980948 286514 525
382777 616249 470
749272 478354 509
535465 242149 470
342494 523387 470
399181 469142 449
900717 534837 525
615045 548722 447
855331 810376 525
