1 1 1
1 10 20
100 200 125
201 210 89
900 1000 174
470008 813476 509
972677 93488 525
952677 70345 525
769116 311131 509
497344 215148 449
805921 536588 509
917157 916619 264
487616 977601 525
50756 984839 525
535727 456326 470
515225 164726 470
741482 758695 424
691637 404526 509
737140 280799 509
871486 882202 432
890747 146483 525
236459 151440 443
202718 110095 383
897756 271637 525
548607 409425 470
764402 970897 525
453237 940043 525
836585 202643 509
125080 338404 443
684933 864695 525
187845 408066 443
502119 886002 525
440856 812850 509
476567 241547 449
651048 122985 509
223637 996635 525
487688 582331 470
290375 12028 443
95049 519205 470
178280 724406 509
947939 477176 525
713527 402937 509
306123 407521 441
528114 98548 470
609427 995058 525
449908 522713 470
165703 607003 470
466585 84496 449
577282 183478 470
90237 494414 449
818340 781377 468
95437 920835 525
324668 155242 443
186445 495325 449
612622 692823 509
92338 982336 525
390263 254066 441
590937 586982 359
125107 573277 470
788904 137737 509
354972 402904 436
331106 182103 443
148869 492918 449
94892 515974 470
569175 11999 470
647070 936621 525
270867 79924 443
866171 127409 525
518926 995224 525
868837 873292 432
520320 609130 452
43132 427449 449
914372 858760 476
993856 160095 525
307813 207516 443
363841 804566 509
805158 780470 468
531319 262982 470
355083 140995 443
767383 410797 509
247280 634544 509
181952 40703 383
587035 598456 403
760992 872450 525
28205 355746 443
865357 662509 525
931681 993000 507
113340 124676 349
268094 25691 443
972096 286433 525
426773 696891 509
671112 511804 509
723240 309325 509
65907 958299 525
48729 904914 525
871561 593713 525
792879 199971 509
472511 792940 509
780683 919302 525
975799 259896 525
385626 303096 441
345269 677218 509
323905 693250 509
520301 772497 509
789705 472239 509
425564 500436 444
725546 465218 509
246548 50792 443
393403 698801 509
28830 517464 470
893108 227795 525
565925 226572 470
197775 481755 449
13453 621960 470
925648 110301 525
559824 909112 525
459459 723250 509
893633 98042 525
767239 314419 509
530902 798332 509
764940 558739 509
223394 538088 470
595832 188454 470
839881 811211 525
988578 215130 525
332233 841583 525
732697 279472 509
886697 713575 525
791868 375336 509
927733 182258 525
320500 583685 470
640930 449928 509
501192 810295 509
622137 990306 525
30400 690628 509
81381 845909 525
512555 305411 470
328604 778822 509
526336 797269 509
85213 811886 509
128397 361457 443
711874 261404 509
383706 903028 525
17006 379607 443
572498 640341 509
850612 494978 525
604523 799624 509
479092 704238 509
460055 412509 418
974809 758879 525
861463 529009 525
712093 582170 509
988907 438538 525
743055 177072 509
378212 825794 509
720562 384630 509
246761 890991 525
384707 707747 509
430832 294249 449
565469 789811 509
362664 728421 509
393571 282435 441
620339 451542 470
46363 388956 443
375950 704403 509
519548 327578 470
800357 773404 468
473730 794527 509
266916 436857 449
2351 689083 509
924414 123196 525
275991 574862 470
761640 792928 468
636850 853709 525
666933 112468 509
514146 694579 509
296577 312364 384
387175 120032 443
639204 121616 509
812296 707901 468
583912 735417 509
927362 698921 525
759752 542287 509
746641 298984 509
367213 590009 470
778957 72746 509
346095 400089 436
72196 521865 470
790711 284354 509
375158 943323 525
654583 969050 525
450418 623143 470
632161 146646 509
150295 169757 383
741318 668648 504
